﻿11759_banner2_3x6.swf Movie Report
-----------------------------------

Metadata
--------
Bytes         Value
----------    -----
      1058    <rdf:RDF xmlns:rdf="http://www.w3.org/1999/02/22-rdf-syntax-ns#"> <rdf:Description rdf:about="" xmlns:xmp="http://ns.adobe.com/xap/1.0/"> <xmp:CreatorTool>Adobe Flash CS4 Professional</xmp:CreatorTool> <xmp:CreateDate>2008-06-04T13:52:26-07:00</xmp:CreateDate> <xmp:MetadataDate>2013-09-30T21:53:38-04:00</xmp:MetadataDate> <xmp:ModifyDate>2013-09-30T21:53:38-04:00</xmp:ModifyDate> </rdf:Description> <rdf:Description rdf:about="" xmlns:dc="http://purl.org/dc/elements/1.1/"> <dc:format>application/x-shockwave-flash</dc:format> </rdf:Description> <rdf:Description rdf:about="" xmlns:xmpMM="http://ns.adobe.com/xap/1.0/mm/" xmlns:stRef="http://ns.adobe.com/xap/1.0/sType/ResourceRef#"> <xmpMM:InstanceID>xmp.iid:9110E202442068118083FFBE324F57E0</xmpMM:InstanceID> <xmpMM:DocumentID>xmp.did:9110E202442068118083FFBE324F57E0</xmpMM:DocumentID> <xmpMM:OriginalDocumentID>xmp.did:8B43150C0A2068118D4A9DDB7A856D3B</xmpMM:OriginalDocumentID> <xmpMM:DerivedFrom rdf:parseType="Resource"> <stRef:instanceID>xmp.iid:D71490C0382068118083FFBE324F57E0</stRef:instanceID> <stRef:documentID>xmp.did:3D704EB8432068118083C2FCB24F364B</stRef:documentID> <stRef:originalDocumentID>xmp.did:8B43150C0A2068118D4A9DDB7A856D3B</stRef:originalDocumentID> </xmpMM:DerivedFrom> </rdf:Description> </rdf:RDF> 

Frame #    Frame Bytes    Total Bytes    Scene
-------    -----------    -----------    -----
      1          42600          42600    Scene 1 (AS 3.0 Classes Export Frame)

Scene      Shape Bytes    Text Bytes    ActionScript Bytes
-------    -----------    ----------    ------------------
Scene 1            127             0                  6187

Symbol            Shape Bytes    Text Bytes    ActionScript Bytes
--------------    -----------    ----------    ------------------
area                       32             0                     0
arrow                      45             0                     0
ask                         0             0                     0
ball                        0             0                     0
dr                          0             0                     0
flulcelvax_ogo              0             0                     0
gd                          0             0                     0
gradient_ball               0             0                     0
headshot                    0             0                     0
hide                        0             0                     0
isi mask                   33             0                     0
logo                     2780             0                     0
mask                        0             0                     0
more_link                  68            58                     0
more_text                 984             0                     0
o_text                      0             0                     0
oj_b                       32             0                     0
oldisi                      0             0                     0
outline                     0             0                     0
scene2                      0           164                     0
scene3                      0            93                     0
scroll handle              28             0                     0
spotlight                  64             0                     0
Symbol 1                    0            69                     0
Symbol 2                    0             0                     0
Symbol 3                    0             0                     0
text_1                      0             0                     0
text_2                      0             0                     0
text1                       0            56                     0
text2                       0            54                     0
two                         0             0                     0
walgreens logo              0             0                     0
walgreens.ai                0             0                     0
wg_logo                     0             0                     0
white                       0             0                     0
wipe_in_text                0             0                     0
wordmasking                 0             0                     0
isi                         0          3188                     0
click here                131           143                     0

Font Name                   Bytes         Characters
------------------------    ----------    ----------
Helvetica-Condensed               9248     (),-./0123456789:ABCDEFGHIJKLMNOPQRSTUVWXYZabcdefghijklmnopqrstuvwxyz ©é•
Helvetica-Condensed-Bold          6769     ()?ABCDEFGHIJKLMNOPQRSTUVWXYZabcdefghijklmnopqrstuvwxyz ®
ApexSansBoldST                    3125     (),.?ABCDEFGHIJKLMNOPQRSTUVWXYZ 

ActionScript Bytes    Location
------------------    --------
              6187    Scene 1:Frame 1

Bitmap               Compressed    Original      Compression
-----------------    ----------    ----------    -----------
novartis.jpg copy          1606         21952    JPEG Quality=80
dr.jpg                     3254        232200    JPEG Quality=40
flu_logo_3x6.png           2069         14220    Lossless




