﻿12098-abraxane-6x4.swf Movie Report
------------------------------------

Frame #    Frame Bytes    Total Bytes    Scene
-------    -----------    -----------    -----
      1          56160          56160    Scene 1 (AS 3.0 Classes Export Frame)

Scene      Shape Bytes    Text Bytes    ActionScript Bytes
-------    -----------    ----------    ------------------
Scene 1             72           173                 11423

Symbol          Shape Bytes    Text Bytes    ActionScript Bytes
------------    -----------    ----------    ------------------
button_mc                25             0                     0
fr1                       0             0                     0
loadingMask              28             0                     0
button_mc                25             0                     0
CTA_btn                  77            46                     0
fr1txt                    0           131                     0
fr2txt                    0           637                     0
fr3txt                    0             0                     0
fr4txt                    0             0                     0
grade                    40             0                     0
isi_gradient             40             0                     0
isi_main                 93         13005                     0
isi_mask                 42             0                     0
isi_mc                   97             0                     0
logo                      0             0                     0
text2                     0           242                     0
txt1                      0           397                     0

Font Name                       Bytes         Characters
----------------------------    ----------    ----------
HelveticaNeueLTStd-It Italic           286    P
HelveticaNeueLTStd-Lt                 4646     ()+-0134=ABCENOPRSXabcdefgilmnoprstv 
HelveticaNeueLTStd-Md                 8306     %(),-./0123456789:<>ABCDEFGILMNOPRSTUWXYabcdefghijklmnopqrstuvwxyz ©®•≤≥
HelveticaNeueLTStd-Bd Bold            6801     (),-./0135678:ABCDEFGHILMNOPRSTUVWXabcdefghijklmnopqrstuvwxy ®’

ActionScript Bytes    Location
------------------    --------
             11423    Scene 1:Frame 1

Bitmap              Compressed    Original      Compression
----------------    ----------    ----------    -----------
peopleBottom.jpg           485         59496    JPEG Quality=20
peopleTop.jpg             1866         84360    JPEG Quality=40
bg_black.png              2708         48300    Lossless
sky.jpg                   1183        522240    JPEG Quality=35
logo_6x4.png              2368         15984    JPEG Quality=50




